<?xml version="1.0" standalone="no"?>
<!DOCTYPE svg PUBLIC "-//W3C//DTD SVG 20010904//EN"
 "http://www.w3.org/TR/2001/REC-SVG-20010904/DTD/svg10.dtd">
<svg version="1.0" xmlns="http://www.w3.org/2000/svg"
 width="100" height="100" viewBox="103 185 10 61"
 preserveAspectRatio="xMidYMid meet">
<metadata>
Created by potrace 1.10, written by Peter Selinger 2001-2011
</metadata>
<g
fill="#d9e2a8">
<path d="M85.18 189c-1.751 0 -3.18 1.429 -3.18 3.18l0 46.64c0 1.751 1.429 3.18 3.18 3.18l45.58 0c0.426 0 0.8 -0.232 0.96 -0.63c0.166 -0.397 0.071 -0.856 -0.231 -1.159l-7.95 -7.983c-0.327 -0.327 -0.833 -0.385 -1.226 -0.199c-0.012 0.005 -0.02 -0.004 -0.033 0c-0.683 0.303 -1.4 0.464 -2.153 0.464c-2.923 0 -5.3 -2.377 -5.3 -5.3c0 -2.923 2.377 -5.3 5.3 -5.3c2.923 0 5.3 2.377 5.3 5.3c0 0.75 -0.162 1.478 -0.464 2.153c-0.054 0.116 -0.058 0.24 -0.066 0.365c-0.033 0.356 0.116 0.67 0.397 0.894l7.884 7.917c0.203 0.203 0.485 0.298 0.762 0.298c0.137 0 0.265 -0.012 0.398 -0.066c0.393 -0.162 0.662 -0.568 0.662 -0.994l0 -45.58c0 -1.751 -1.424 -3.18 -3.18 -3.18l-18.02 0c-0.282 0 -0.563 0.132 -0.762 0.331l-11.13 11.13c-0.315 0.27 -0.422 0.688 -0.298 1.093c0.012 0.042 0.017 0.062 0.033 0.1c0 0.004 0 0.029 0 0.033c0.315 0.687 0.464 1.42 0.464 2.186c0 2.923 -2.377 5.3 -5.3 5.3c-2.923 0 -5.3 -2.377 -5.3 -5.3c0 -2.923 2.377 -5.3 5.3 -5.3c0.753 0 1.474 0.157 2.153 0.464c0.008 0.004 0.025 -0.004 0.033 0c0.39 0.17 0.874 0.12 1.193 -0.199l7.983 -8.016c0.302 -0.302 0.397 -0.762 0.232 -1.16c-0.166 -0.397 -0.535 -0.662 -0.961 -0.662l-22.26 0zm34.947 9.573c2.923 0 5.3 2.377 5.3 5.3c0 2.923 -2.377 5.3 -5.3 5.3c-0.75 0 -1.495 -0.149 -2.186 -0.464c-0.402 -0.182 -0.878 -0.111 -1.193 0.2l-14.906 14.905c-0.31 0.31 -0.381 0.791 -0.199 1.193c0.315 0.691 0.464 1.437 0.464 2.186c0 2.923 -2.377 5.3 -5.3 5.3c-2.923 0 -5.3 -2.377 -5.3 -5.3c0 -2.923 2.377 -5.3 5.3 -5.3c0.753 0 1.495 0.15 2.186 0.464c0.402 0.182 0.849 0.112 1.16 -0.199l14.939 -14.94c0.315 -0.31 0.38 -0.757 0.199 -1.159c-0.315 -0.691 -0.464 -1.432 -0.464 -2.186c0 -2.923 2.377 -5.3 5.3 -5.3zm-23.32 3.18c-1.172 0 -2.12 0.948 -2.12 2.12c0 1.172 0.948 2.12 2.12 2.12c1.172 0 2.12 -0.948 2.12 -2.12c0 -1.172 -0.948 -2.12 -2.12 -2.12zm23.32 0c-1.172 0 -2.12 0.948 -2.12 2.12c0 1.172 0.948 2.12 2.12 2.12c1.172 0 2.12 -0.948 2.12 -2.12c0 -1.172 -0.948 -2.12 -2.12 -2.12zm-23.32 23.32c-1.172 0 -2.12 0.948 -2.12 2.12c0 1.172 0.948 2.12 2.12 2.12c1.172 0 2.12 -0.948 2.12 -2.12c0 -1.172 -0.948 -2.12 -2.12 -2.12zm23.32 0c-1.172 0 -2.12 0.948 -2.12 2.12c0 1.172 0.948 2.12 2.12 2.12c1.172 0 2.12 -0.948 2.12 -2.12c0 -1.172 -0.948 -2.12 -2.12 -2.12z" />
</g>
</svg>
